<?xml version="1.0" encoding="UTF-8" standalone="no"?>
<!-- Created with Inkscape (http://www.inkscape.org/) -->

<svg
   width="11in"
   height="8.5in"
   viewBox="0 0 279.4 215.9"
   version="1.1"
   id="svg5"
   inkscape:version="1.1 (c68e22c387, 2021-05-23)"
   sodipodi:docname="certificate.svg"
   xmlns:inkscape="http://www.inkscape.org/namespaces/inkscape"
   xmlns:sodipodi="http://sodipodi.sourceforge.net/DTD/sodipodi-0.dtd"
   xmlns="http://www.w3.org/2000/svg"
   xmlns:svg="http://www.w3.org/2000/svg">
  <sodipodi:namedview
     id="namedview7"
     pagecolor="#505050"
     bordercolor="#ffffff"
     borderopacity="1"
     inkscape:pageshadow="0"
     inkscape:pageopacity="0"
     inkscape:pagecheckerboard="1"
     inkscape:document-units="in"
     showgrid="false"
     inkscape:zoom="1"
     inkscape:cx="457"
     inkscape:cy="514"
     inkscape:window-width="2544"
     inkscape:window-height="1284"
     inkscape:window-x="0"
     inkscape:window-y="69"
     inkscape:window-maximized="0"
     inkscape:current-layer="layer1" />
  <defs
     id="defs2">
    <rect
       x="216"
       y="417"
       width="615"
       height="84"
       id="rect31977" />
    <rect
       x="233.34524"
       y="192.33304"
       width="574.93817"
       height="314.7544"
       id="rect6744" />
    <rect
       x="233.34524"
       y="192.33304"
       width="574.93817"
       height="314.7544"
       id="rect48499" />
  </defs>
  <g
     inkscape:label="Layer 1"
     inkscape:groupmode="layer"
     id="layer1">
    <rect
       style="fill:#fffdff;fill-opacity:1;stroke:none;stroke-width:1.77324;stroke-linecap:round;stroke-linejoin:round"
       id="rect2458"
       width="279.39999"
       height="215.89999"
       x="3.0517579e-06"
       y="3.0517579e-06"
       inkscape:export-filename="D:\Seafile\Development\Software Projects\call_number_training_game\dist\certificate.png"
       inkscape:export-xdpi="150"
       inkscape:export-ydpi="150" />
    <path
       id="rect1413"
       style="fill:#171b48;fill-opacity:1;stroke:none;stroke-width:3.28054;stroke-linecap:round;stroke-linejoin:round"
       d="M 0,0 V 94.263672 H 21.636719 V 72.509766 21.753906 H 72.123047 93.759766 V 0 Z M 43.273438,43.505859 V 72.509766 H 72.123047 V 43.505859 Z m 50.486328,0 v 29.003907 l 842.240244,0 V 43.505859 Z M 43.273438,94.263672 V 695 H 72.123047 V 116.01758 94.263672 Z"
       transform="scale(0.26458333)"
       sodipodi:nodetypes="ccccccccccccccccccccccccc"
       inkscape:export-filename="D:\Seafile\Development\Software Projects\call_number_training_game\dist\certificate.png"
       inkscape:export-xdpi="150"
       inkscape:export-ydpi="150" />
    <path
       id="path5426"
       style="fill:#171b48;fill-opacity:1;stroke:none;stroke-width:0.867976;stroke-linecap:round;stroke-linejoin:round"
       d="M 3.0517579e-6,215.89999 V 190.9594 H 5.7247183 v 5.75572 13.42915 h 13.3578407 5.724715 v 5.75572 z M 11.449433,204.38907 v -7.67395 h 7.633126 v 7.67395 z m 13.357841,0 v -7.67395 h 13.292729 v 7.67395 z M 11.449433,190.9594 V 177.8 h 7.633126 v 7.40368 5.75572 z"
       inkscape:export-filename="D:\Seafile\Development\Software Projects\call_number_training_game\dist\certificate.png"
       inkscape:export-xdpi="150"
       inkscape:export-ydpi="150" />
    <path
       id="path5527"
       style="fill:#171b48;fill-opacity:1;stroke:none;stroke-width:0.867976;stroke-linecap:round;stroke-linejoin:round"
       d="M 279.39999,3.0517579e-6 V 24.940599 h -5.72471 V 19.184878 5.755724 h -13.35785 -5.72471 V 3.0517579e-6 Z M 267.95056,11.510928 v 7.67395 h -7.63313 v -7.67395 z m -13.35784,0 v 7.67395 h -13.29273 v -7.67395 z m 13.35784,13.429671 V 183.88541 h -7.63313 V 30.696321 24.940599 Z"
       sodipodi:nodetypes="ccccccccccccccccccccccccc"
       inkscape:export-filename="D:\Seafile\Development\Software Projects\call_number_training_game\dist\certificate.png"
       inkscape:export-xdpi="150"
       inkscape:export-ydpi="150" />
    <path
       id="path5529"
       style="fill:#171b48;fill-opacity:1;stroke:none;stroke-width:0.867976;stroke-linecap:round;stroke-linejoin:round"
       d="M 279.39999,215.89999 V 190.9594 h -5.72472 v 5.75572 13.42915 h -13.35784 -5.72471 v 5.75572 z m -11.44943,-11.51092 v -7.67395 h -7.63313 v 7.67395 z m -13.35784,0 v -7.67395 l -222.578146,0 v 7.67395 z M 267.95056,190.9594 V 177.8 h -7.63313 v 7.40368 5.75572 z"
       sodipodi:nodetypes="ccccccccccccccccccccccccc"
       inkscape:export-filename="D:\Seafile\Development\Software Projects\call_number_training_game\dist\certificate.png"
       inkscape:export-xdpi="150"
       inkscape:export-ydpi="150" />
    <text
       xml:space="preserve"
       transform="matrix(0.26458333,0,0,0.26458333,0.44596937,-16.404167)"
       id="text6742"
       style="font-style:normal;font-variant:normal;font-weight:normal;font-stretch:normal;font-size:64px;line-height:1.25;font-family:'VCR OSD Mono';-inkscape-font-specification:'VCR OSD Mono';text-align:center;white-space:pre;shape-inside:url(#rect6744);fill:#000000;fill-opacity:1;stroke:none"
       x="240.625"
       y="0"
       inkscape:export-filename="D:\Seafile\Development\Software Projects\call_number_training_game\dist\certificate.png"
       inkscape:export-xdpi="150"
       inkscape:export-ydpi="150"><tspan
         x="314.56445"
         y="264.33398"
         id="tspan144603">CERTIFICATE</tspan></text>
    <text
       xml:space="preserve"
       transform="scale(0.26458333)"
       id="text31975"
       style="fill:black;fill-opacity:1;line-height:1.25;stroke:none;font-family:sans-serif;font-style:normal;font-weight:normal;font-size:40px;white-space:pre;shape-inside:url(#rect31977)"
       inkscape:export-filename="D:\Seafile\Development\Software Projects\call_number_training_game\dist\certificate.png"
       inkscape:export-xdpi="150"
       inkscape:export-ydpi="150" />
    <text
       xml:space="preserve"
       style="font-style:normal;font-weight:normal;font-size:8.46667px;line-height:1.25;font-family:sans-serif;text-align:center;text-anchor:middle;fill:#000000;fill-opacity:1;stroke:none;stroke-width:0.264583"
       x="138.45149"
       y="145.25623"
       id="text34293"
       inkscape:export-filename="D:\Seafile\Development\Software Projects\call_number_training_game\dist\certificate.png"
       inkscape:export-xdpi="150"
       inkscape:export-ydpi="150"><tspan
         sodipodi:role="line"
         id="tspan34291"
         style="font-style:normal;font-variant:normal;font-weight:normal;font-stretch:normal;font-size:8.46667px;font-family:'VCR OSD Mono';-inkscape-font-specification:'VCR OSD Mono';text-align:center;text-anchor:middle;stroke-width:0.264583"
         x="138.45149"
         y="145.25623">has completed the </tspan><tspan
         sodipodi:role="line"
         style="font-style:normal;font-variant:normal;font-weight:bold;font-stretch:normal;font-size:8.46667px;font-family:'VCR OSD Mono';-inkscape-font-specification:'VCR OSD Mono';text-align:center;text-anchor:middle;stroke-width:0.264583"
         x="138.45149"
         y="157.64017"
         id="tspan73815">&quot;Library of Congress Call Numbers&quot;</tspan><tspan
         sodipodi:role="line"
         style="font-style:normal;font-variant:normal;font-weight:normal;font-stretch:normal;font-size:8.46667px;font-family:'VCR OSD Mono';-inkscape-font-specification:'VCR OSD Mono';text-align:center;text-anchor:middle;stroke-width:0.264583"
         x="138.45149"
         y="170.02411"
         id="tspan92395">training game.</tspan></text>
    <text
       xml:space="preserve"
       transform="matrix(0.26458333,0,0,0.26458333,0.44596937,-6.3798472)"
       id="text48497"
       style="font-style:normal;font-variant:normal;font-weight:normal;font-stretch:normal;font-size:64px;line-height:1.25;font-family:'VCR OSD Mono';-inkscape-font-specification:'VCR OSD Mono';text-align:center;white-space:pre;shape-inside:url(#rect48499);fill:#000000;fill-opacity:1;stroke:none"
       x="240.625"
       y="0"
       inkscape:export-filename="D:\Seafile\Development\Software Projects\call_number_training_game\dist\certificate.png"
       inkscape:export-xdpi="150"
       inkscape:export-ydpi="150"><tspan
         x="368.4707"
         y="264.33398"
         id="tspan144607"><tspan
           style="font-size:40px"
           id="tspan144605">OF COMPLETION</tspan></tspan></text>
    <g
       id="g54403"
       transform="translate(0,0.25595142)"
       inkscape:export-filename="D:\Seafile\Development\Software Projects\call_number_training_game\dist\certificate.png"
       inkscape:export-xdpi="150"
       inkscape:export-ydpi="150">
      <rect
         style="fill:#000000;stroke-width:0.792448;stroke-linecap:round;stroke-linejoin:round"
         id="rect54295"
         width="11.578692"
         height="1.032228"
         x="84.501305"
         y="58.910721" />
      <rect
         style="fill:#000000;stroke-width:0.792448;stroke-linecap:round;stroke-linejoin:round"
         id="rect54399"
         width="11.578692"
         height="1.032228"
         x="180.40959"
         y="58.910721" />
    </g>
    <text
       xml:space="preserve"
       style="font-style:normal;font-weight:normal;font-size:8.46667px;line-height:1.25;font-family:sans-serif;fill:#000000;fill-opacity:1;stroke:none;stroke-width:0.264583"
       x="91.529282"
       y="93.32679"
       id="text62601"
       inkscape:export-filename="D:\Seafile\Development\Software Projects\call_number_training_game\dist\certificate.png"
       inkscape:export-xdpi="150"
       inkscape:export-ydpi="150"><tspan
         sodipodi:role="line"
         id="tspan62599"
         style="font-style:normal;font-variant:normal;font-weight:normal;font-stretch:normal;font-size:8.46667px;font-family:'VCR OSD Mono';-inkscape-font-specification:'VCR OSD Mono';stroke-width:0.264583"
         x="91.529282"
         y="93.32679">This certifies that</tspan></text>
    <text
       xml:space="preserve"
       style="font-style:normal;font-weight:normal;font-size:5.64444px;line-height:1.25;font-family:sans-serif;fill:#000000;fill-opacity:1;stroke:none;stroke-width:0.264583"
       x="201.37436"
       y="193.4411"
       id="text103801"
       inkscape:export-filename="D:\Seafile\Development\Software Projects\call_number_training_game\dist\certificate.png"
       inkscape:export-xdpi="150"
       inkscape:export-ydpi="150"><tspan
         sodipodi:role="line"
         id="tspan103799"
         style="font-style:normal;font-variant:normal;font-weight:normal;font-stretch:normal;font-size:5.64444px;font-family:'VCR OSD Mono';-inkscape-font-specification:'VCR OSD Mono';stroke-width:0.264583"
         x="201.37436"
         y="193.4411">Date:___________</tspan></text>
    <rect
       style="fill:#000000;stroke-width:2.97437;stroke-linecap:round;stroke-linejoin:round"
       id="rect62511"
       width="163.12051"
       height="1.032228"
       x="56.684536"
       y="123.05994"
       inkscape:export-filename="D:\Seafile\Development\Software Projects\call_number_training_game\dist\certificate.png"
       inkscape:export-xdpi="150"
       inkscape:export-ydpi="150" />
    <text
       xml:space="preserve"
       style="font-style:normal;font-weight:normal;font-size:16.9333px;line-height:1.25;font-family:sans-serif;fill:#000000;fill-opacity:1;stroke:none;stroke-width:0.264583"
       x="138.2448"
       y="120.69199"
       id="text119585"
       inkscape:export-filename="D:\Seafile\Development\Software Projects\call_number_training_game\dist\certificate.png"
       inkscape:export-xdpi="150"
       inkscape:export-ydpi="150"><tspan
         sodipodi:role="line"
         id="tspan119583"
         style="font-style:normal;font-variant:normal;font-weight:normal;font-stretch:normal;font-size:16.9333px;font-family:'VCR OSD Mono';-inkscape-font-specification:'VCR OSD Mono';text-align:center;text-anchor:middle;stroke-width:0.264583"
         x="138.2448"
         y="120.69199" /></text>
  </g>
</svg>
